[
	{
		"ParameterValue": "abbeycapital-restricted-deployment-bucket",
		"ParameterKey": "RestrictedDeploymentBucket"
	},
	{
		"ParameterValue": "abbeycapital-private-deployment-bucket",
		"ParameterKey": "PrivateDeploymentBucket"
	},
	{
		"ParameterValue": "abbeycapital-private-backup-bucket",
		"ParameterKey": "PrivateBackupBucket"
	}
]
