{
    "AWSTemplateFormatVersion": "2010-09-09",
    "Description": "Create EC2 instance with EasyRsa, note security groups, scripts on s3 and instanceprofile must already exist in the VPC",
    "Parameters": {
        "envPrefix": {
            "Description": "Environment name prefix.",
            "Type": "String"
        },
        "MySubnetId": {
            "Description": "Name of the deployment subnet",
            "Type": "String"
        },
        "ManagementSg": {
            "Description": "Id of CASg",
            "Type": "String"
        },
        "MyInstanceProfile": {
            "Description": "Name of the Instance Profile",
            "Type": "String"
        },
        "RestrictedBucket": {
            "Description": "Name of s3 restricted deployment bucket",
            "Type": "String"
        },
        "MyInstanceType": {
            "Description": "MngServer EC2 instance type",
            "Type": "String",
            "Default": "t2.micro",
            "AllowedValues": [
                "t2.nano",
                "t2.micro",
                "t2.small",
                "t2.medium",
                "t2.large",
                "t2.xlarge",
                "t2.2xlarge"
            ],
            "ConstraintDescription": "must be a valid EC2 instance type."
        },
        "MyKeyName": {
            "Description": "The EC2 Key Pair to allow SSH access to the instances",
            "Type": "String"
        },
        "MyVPNUsers": {
            "Description": "List of users to who will use the Bastion VPN",
            "Type": "String",
            "Default": ""
        }
    },
    "Mappings": {
        "RegionMap": {
            "eu-west-1": {
                "AMI": "ami-1b791862"
            },
            "us-west-2": {
                "AMI": "ami-965e6bf3"
            }
        },
        "AWSInstanceType2Arch": {
            "t2.nano": {
                "Arch": "64"
            },
            "t2.micro": {
                "Arch": "64"
            },
            "t2.small": {
                "Arch": "64"
            },
            "t2.medium": {
                "Arch": "64"
            },
            "t2.large": {
                "Arch": "64"
            },
            "t2.xlarge": {
                "Arch": "64"
            },
            "t2.2xlarge": {
                "Arch": "64"
            }
        }
    },
    "Resources": {
        "CAInstance": {
            "Type": "AWS::EC2::Instance",
            "Metadata": {
                "AWS::CloudFormation::Init": {
                    "config": {
                        "packages": {
                            "apt": {
                                "awscli" : [],
                                "easy-rsa": []
                            }
                        },
                        "files": {
                            "/tmp/rclocal": {
                                "content": {
                                    "Fn::Join": [
                                        "",
                                        [
                                            "# Remove line containing #my-host-name-do-not-remove-me from the /etc/hosts file\n",
                                            "/bin/sed -i -e '/#my-host-name-do-not-remove-me/d' /etc/hosts\n",
                                            "# Get IP address and hostname\n",
                                            "IPADDRESS=$(/usr/bin/ec2metadata | /usr/bin/awk '/local-ipv4/{ print $2 }')\n",
                                            "HOSTNAME=$(/bin/hostname)\n",
                                            "# Add IP address and hostname to the /etc/hosts file\n",
                                            "echo \"$IPADDRESS $HOSTNAME #my-host-name-do-not-remove-me\" >>/etc/hosts\n"
                                        ]
                                    ]
                                },
                                "mode": "000755",
                                "owner": "root",
                                "group": "root"
                            }
                        },
                        "commands": {
                            "cmds1": {
                                "command": "aws configure set default.s3.signature_version s3v4",
                                "env": {
                                    "MyEnvVars": "No special"
                                },
                                "cwd": "/root",
                                "ignoreErrors": "false"
                            },
                            "cmds2": {
                                "command": "aws s3 cp s3://${S3Bucket}/openvpn/vars /tmp/easy-rsa; chmod 0644 /tmp/easy-rsa",
                                "env": {
                                    "S3Bucket": { "Ref" : "RestrictedBucket" }
                                },
                                "cwd": "/root",
                                "ignoreErrors": "false"
                            },
                            "cmds3": {
                                "command": "aws s3 cp s3://${S3Bucket}/openvpn/casetup.sh /tmp/casetup.sh; chmod 0755 /tmp/casetup.sh",
                                "env": {
                                    "S3Bucket": { "Ref" : "RestrictedBucket" }
                                },
                                "cwd": "/root",
                                "ignoreErrors": "false"
                            },
                            "cmds4": {
                                "command": "mkdir -p /etc/openvpn/easy-rsa/; cp -r /usr/share/easy-rsa/* /etc/openvpn/easy-rsa; cat /tmp/easy-rsa | tr -d '\\015' >/etc/openvpn/easy-rsa/vars; cat /tmp/casetup.sh | tr -d '\\015' >/etc/openvpn/easy-rsa/casetup.sh; chmod 755 /etc/openvpn/easy-rsa/casetup.sh",
                                "env": {
                                    "MyEnvVars": "No special"
                                },
                                "cwd": "/root",
                                "ignoreErrors": "false"
                            },
                            "cmds5": {
                                "command": "/etc/openvpn/easy-rsa/casetup.sh",
                                "env": {
                                    "USERLIST": {
                                        "Ref": "MyVPNUsers"
                                    }
                                },
                                "cwd": "/root",
                                "ignoreErrors": "false"
                            },
                            "cmds6": {
                                "command": "sed -i '/exit 0/d' /etc/rc.local",
                                "env": {
                                    "MyEnvVars": "No special"
                                },
                                "cwd": "/root",
                                "ignoreErrors": "false"
                            }
                        },
                        "services": {}
                    }
                }
            },
            "Properties": {
                "ImageId": {
                    "Fn::FindInMap": [
                        "RegionMap",
                        {"Ref": "AWS::Region"},"AMI"]},
                "InstanceType": {
                    "Ref": "MyInstanceType"
                },
                "IamInstanceProfile": {"Ref":"MyInstanceProfile"},
                "KeyName": {"Ref": "MyKeyName"},
                "Tags": [
                    {
                        "Key": "Name",
                        "Value": {
                            "Fn::Join": [
                                "-",
                                [
                                    {
                                        "Ref": "envPrefix"
                                    },
                                    "CAServer"
                                ]
                            ]
                        }
                    }
                ],
                "NetworkInterfaces": [
                    {
                        "AssociatePublicIpAddress": "true",
                        "DeleteOnTermination": "true",
                        "Description": {
                            "Fn::Join": [
                                "-",
                                [
                                    {
                                        "Ref": "envPrefix"
                                    },
                                    "CAServer-network-interface"
                                ]
                            ]
                        },
                        "DeviceIndex": "0",
                        "GroupSet":  [{"Ref": "ManagementSg"}],
                        "SubnetId":  {"Ref": "MySubnetId"}}
                ],
                "UserData": {
                    "Fn::Base64": {
                        "Fn::Join": [
                            "",
                            [
                                "#!/bin/bash\n",
                                "function error_exit\n",
                                "{\n",
                                "  cfn-signal -e 1 -r \"$1\" '",
                                {
                                    "Ref": "Ec2InstanceWaitHandle"
                                },
                                "'\n",
                                "  exit 1\n",
                                "}\n",
                                "echo \"Europe/Dublin\" > /etc/timezone\n",
                                "dpkg-reconfigure -f noninteractive tzdata\n",
                                "/etc/init.d/cron stop\n",
                                "/etc/init.d/cron start\n",
                                "apt-get -y update\n",
                                "# Get python tools\n",
                                "apt-get -y install python-setuptools\n",
                                "easy_install https://s3.amazonaws.com/cloudformation-examples/aws-cfn-bootstrap-latest.tar.gz\n",
                                "# Enable multiverse repositories\n",
                                "perl -pi.orig -e 'next if /-backports/; s/^# (deb .* multiverse)$/$1/'   /etc/apt/sources.list\n",
                                "# Add awstools-dev repo to repository sources\n",
                                "apt-add-repository ppa:awstools-dev/awstools -y\n",
                                "apt-get -y update\n",
                                "# Install ec2-api-tools\n",
                                "apt-get -y install ec2-api-tools\n",
                                "# Install latest ec2-api-tools\n",
                                "apt-get -y install unzip\n",
                                "cd /root\n",
                                "wget --quiet http://s3.amazonaws.com/ec2-downloads/ec2-api-tools.zip\n",
                                "unzip -qq ec2-api-tools.zip\n",
                                "rsync -a --no-o --no-g ec2-api-tools-*/ /usr\n",
                                "/usr/local/bin/cfn-init -s ",
                                {
                                    "Ref": "AWS::StackId"
                                },
                                " -r CAInstance ",
                                " -v  --region ",
                                {
                                    "Ref": "AWS::Region"
                                },
                                " || error_exit 'Failed to run cfn-init'\n",
                                "cfn-signal -e 0 -r \"Complete.\" '",
                                {
                                    "Ref": "Ec2InstanceWaitHandle"
                                },
                                "'\n",
                                "# Find hostname and set it in /etc/hosts file\n",
                                "/tmp/rclocal\n",
                                "cat /tmp/rclocal >>/etc/rc.local\n",
                                "echo userdata-complete; \n"
                            ]
                        ]
                    }
                }
            }
        },
        "Ec2InstanceWaitHandle": {
            "Type": "AWS::CloudFormation::WaitConditionHandle"
        },
        "Ec2InstanceWaitCondition": {
            "Type": "AWS::CloudFormation::WaitCondition",
            "DependsOn": "CAInstance",
            "Properties": {
                "Handle": {
                    "Ref": "Ec2InstanceWaitHandle"
                },
                "Timeout": "1800"
            }
        }
    },
    "Outputs": {
        "InstanceId": {
            "Description": "InstanceId of the newly created EC2 instance",
            "Value": {
                "Ref": "CAInstance"
            }
        },
        "AZ": {
            "Description": "Availability Zone of the newly created EC2 instance",
            "Value": {
                "Fn::GetAtt": [
                    "CAInstance",
                    "AvailabilityZone"
                ]
            }
        },
        "PrivateIP": {
            "Description": "Private IP address of the newly created EC2 instance",
            "Value": {
                "Fn::GetAtt": [
                    "CAInstance",
                    "PrivateIp"
                ]
            }
        },
        "PublicIP": {
            "Description": "Public IP address of the newly created EC2 instance",
            "Value": {
                "Fn::GetAtt": [
                    "CAInstance",
                    "PublicIp"
                ]
            }
        }
    }
}
