[
	{
		"ParameterKey": "envPrefix",
		"ParameterValue": "Live-10.140"
	},
	{
		"ParameterKey": "MyVPCId",
		"ParameterValue": "vpc-0baebcb0e1fc951b5"
	},
	{
		"ParameterKey": "MyVPCCidr",
		"ParameterValue": "10.140.0.0/16"
	},
	{
		"ParameterKey": "VPNServerPort",
		"ParameterValue": "1194"
	},
	{
		"ParameterKey": "SSHSetUp",
		"ParameterValue": "10.140.0.0/16"
	},
	{
		"ParameterKey": "ExternalDomainController1",
		"ParameterValue": "10.140.12.0/23"
	},
	{
		"ParameterKey": "ExternalDomainController2",
		"ParameterValue": "10.140.12.0/23"
	},
	{
		"ParameterKey": "MyDirectorySubnetCidr",
		"ParameterValue": "10.140.12.0/23"
	}
]
