[
    {
      "ParameterKey": "Name",
      "ParameterValue": "VPC-10.140-AzureADConnect"
    },
    {
      "ParameterKey": "Ami",
      "ParameterValue": "ami-05938e59901d65337"
    },
    {
      "ParameterKey": "InstanceType",
      "ParameterValue": "t3.xlarge"
    },
    {
      "ParameterKey": "KeyPair",
      "ParameterValue": "ac-mng-key"
    },
    {
      "ParameterKey": "VPC",
      "ParameterValue": "vpc-0baebcb0e1fc951b5"
    },
    {
      "ParameterKey": "SubnetId",
      "ParameterValue": "subnet-00f89cffa9e5166a8"
    },
    {
      "ParameterKey": "SecurityGroupIds",
      "ParameterValue": "sg-0c1af86337060fdbd, sg-0d1f33d25c19a661a, sg-0fc9acb59ac02698f, sg-0c68e49371b03530a, sg-0a99df1740898f1db"
    },
    {
      "ParameterKey": "VolumeSize",
      "ParameterValue": "100"
    },
    {
      "ParameterKey": "VolumeType",
      "ParameterValue": "gp3"
    }
  ]  