[
    {
        "ParameterKey": "EnableTrailAlarms",
        "ParameterValue": "N"
    },
    {
        "ParameterKey": "MyEmail",
        "ParameterValue": "italerts@abbeycapital.com"
    },
    {
        "ParameterKey": "MyLogGroupName",
        "ParameterValue": "CloudTrail/DefaultLogGroup"
    },
    {
        "ParameterKey": "MyTrailBucketName",
        "ParameterValue": "abbeycapital-cloudtrail-audit"
    }
]
