[
	{
		"ParameterKey": "envPrefix",
		"ParameterValue": "VPC-10.140"
	},
	{
		"ParameterKey": "VPCBaseStackName",
		"ParameterValue": "VPC-10140-VPCBase"
	},
	{
		"ParameterKey": "ManagementSgsStackName",
		"ParameterValue": "Management-SecurityGroups"
	},
	{
		"ParameterKey": "AppsSgsStackName",
		"ParameterValue": "VPC-10140-PRD-ApplicationSGs"
	},
	{
		"ParameterKey": "InstanceProfilesStackStackName",
		"ParameterValue": "InstanceProfilesStack"
	},
	{
		"ParameterKey": "MyInstanceType",
		"ParameterValue": "m5.xlarge"
	},
	{
		"ParameterKey": "MyKeyName",
		"ParameterValue": "ac-paloalto-pubsub-key"
	},
	{
		"ParameterKey": "MyAMI",
		"ParameterValue": "ami-09312982f28611e13"
	},
	{
		"ParameterKey": "PublicSubnet",
		"ParameterValue": "publicSharedSubnetAz2Id"
	},
	{
		"ParameterKey": "PrivateSubnet",
		"ParameterValue": "privateAccessSubnetAz2Id"
	},
	{
		"ParameterKey": "MyAZ",
		"ParameterValue": "AZ2"
	},
	{
		"ParameterKey": "MyPrivateIpAddressEth0Management",
		"ParameterValue": "10.140.1.90"
	},
	{
		"ParameterKey": "MyPrivateIpAddressEth1Public",
		"ParameterValue": "10.140.1.91"
	},
	{
		"ParameterKey": "MyPrivateIpAddressEth2Private",
		"ParameterValue": "10.140.5.92"
	}
]