[
  {
      "ParameterKey": "envPrefix",
      "ParameterValue": "VPC-10.140-Live"
  },
  {
      "ParameterKey": "CustomerAccount",
      "ParameterValue": "985715988019"
  },
  {
      "ParameterKey": "ManageMeSg",
      "ParameterValue": "sg-0fc9acb59ac02698f"
  },
  {
      "ParameterKey": "DomainMembersSg",
      "ParameterValue": "sg-0c1af86337060fdbd"
  },
  {
      "ParameterKey": "PrivateS3BucketName",
      "ParameterValue": "abbeycapital-private-deployment-bucket"
  },
  {
      "ParameterKey": "MyAMI",
      "ParameterValue": "ami-088f9db67b4afec52"
  },
  {
      "ParameterKey": "KeyPairName",
      "ParameterValue": "ac-priv-key"
  },
  {
      "ParameterKey": "InstanceType",
      "ParameterValue": "m5.xlarge"
  },
  {
      "ParameterKey": "Roles",
      "ParameterValue": "VolumeActivation"
  },
  {
      "ParameterKey": "Features",
      "ParameterValue": "Telnet-Client,NET-Framework-Core"
  },
  {
      "ParameterKey": "MySubnetIdAZ1",
      "ParameterValue": "subnet-0db0a2b4c443d5573"
  },
  {
      "ParameterKey": "MySubnetIdAZ2",
      "ParameterValue": "subnet-0588ca6f6c8bb6153"
  },
  {
      "ParameterKey": "MySg",
      "ParameterValue": "sg-0b4f89239493716ee"
  },
  {
      "ParameterKey": "MyInstanceProfile",
      "ParameterValue": "InstanceProfilesStack-SQLServerInstanceProfile-1D7QDOOLO02GW"
  },
  {
      "ParameterKey": "MyInstanceRole",
      "ParameterValue": "InstanceProfilesStack-SQLServerInstanceRole-FJNLG7A64T76"
  },
  {
      "ParameterKey": "MyTagNameAZ1",
      "ParameterValue": "ClusterAZ1"
  },
  {
      "ParameterKey": "MyTagNameAZ2",
      "ParameterValue": "ClusterAZ2"
  },
  {
      "ParameterKey": "MyWindowsNameAZ1",
      "ParameterValue": "ClusterAZ1"
  },
  {
      "ParameterKey": "MyWindowsNameAZ2",
      "ParameterValue": "ClusterAZ2"
  },
  {
      "ParameterKey": "MyVolCSize",
      "ParameterValue": "100"
  },
  {
      "ParameterKey": "MyVolCEncrypt",
      "ParameterValue": "false"
  },
  {
      "ParameterKey": "MyVolESize",
      "ParameterValue": "600"
  },
  {
      "ParameterKey": "MyVolEEncrypt",
      "ParameterValue": "false"
  },
  {
      "ParameterKey": "MyVolFSize",
      "ParameterValue": "250"
  },
  {
      "ParameterKey": "MyVolFEncrypt",
      "ParameterValue": "false"
  },
  {
      "ParameterKey": "MyVolGSize",
      "ParameterValue": "200"
  },
  {
      "ParameterKey": "MyVolGEncrypt",
      "ParameterValue": "false"
  },
  {
      "ParameterKey": "MyVolHSize",
      "ParameterValue": "730"
  },
  {
      "ParameterKey": "MyVolHEncrypt",
      "ParameterValue": "false"
  },
  {
      "ParameterKey": "CmdIgnoreErrors",
      "ParameterValue": "false"
  },
  {
      "ParameterKey": "MySqlConfFileName",
      "ParameterValue": "SQL2012ConfigurationFileServer.ini"
  },
  {
      "ParameterKey": "MySqlIsoFileName",
      "ParameterValue": "en_sql_server_2012_standard_edition_with_sp1_x64_dvd_1228198.iso"
  },
  {
      "ParameterKey": "MyRole",
      "ParameterValue": "SQLServer"
  },
  {
      "ParameterKey": "MySSMSFileName",
      "ParameterValue": "SSMS-Setup-ENU.exe"
  },
  {
      "ParameterKey": "MySqlIsoDriveLetter",
      "ParameterValue": "H"
  },
  {
      "ParameterKey": "DCUsername",
      "ParameterValue": "dnmsupport"
  },
  {
      "ParameterKey": "DCPassword",
      "ParameterValue": "r3mot3DNM!"
  },
  {
      "ParameterKey": "DC1IP",
      "ParameterValue": "10.140.12.182"
  },
  {
      "ParameterKey": "DC2IP",
      "ParameterValue": "10.140.13.100"
  },
  {
      "ParameterKey": "DCDNSName",
      "ParameterValue": "abbeycapital.local"
  },
  {
      "ParameterKey": "DCBIOSName",
      "ParameterValue": "abbeycapital"
  },
  {
      "ParameterKey": "WSFCNode1PrivateIP1",
      "ParameterValue": "10.140.16.100"
  },
  {
      "ParameterKey": "WSFCNode1PrivateIP2",
      "ParameterValue": "10.140.16.120"
  },
  {
      "ParameterKey": "WSFCNode1PrivateIP3",
      "ParameterValue": "10.140.16.121"
  },
  {
      "ParameterKey": "WSFCNode2PrivateIP1",
      "ParameterValue": "10.140.17.100"
  },
  {
      "ParameterKey": "WSFCNode2PrivateIP2",
      "ParameterValue": "10.140.17.120"
  },
  {
      "ParameterKey": "WSFCNode2PrivateIP3",
      "ParameterValue": "10.140.17.121"
  },
  {
      "ParameterKey": "WSFCNode3PrivateIP2",
      "ParameterValue": ""
  },
  {
      "ParameterKey": "WSFCNode3NetBIOSName",
      "ParameterValue": ""
  },
  {
      "ParameterKey": "WSFCFileServerPrivateIP",
      "ParameterValue": "10.140.16.249"
  },
  {
      "ParameterKey": "SQLServiceAccount",
      "ParameterValue": "dnmsql"
  },
  {
      "ParameterKey": "SQLServiceAccountPassword",
      "ParameterValue": "r3mot3DNM!"
  },
  {
      "ParameterKey": "WSFCFileServerNetBIOSName",
      "ParameterValue": "ClusFileServer"
  },
  {
      "ParameterKey": "ADServerNetBIOSName",
      "ParameterValue": "AWSDC01"
  }
]
