[
	{
		"ParameterKey": "envPrefix",
		"ParameterValue": "VPC-10.140"
	},
	{
		"ParameterKey": "VPCBaseStackName",
		"ParameterValue": "VPC-10140-VPCBase"
	},
	{
		"ParameterKey": "ManagementSgsStackName",
		"ParameterValue": "Management-SecurityGroups"
	},
	{
		"ParameterKey": "AppsSgsStackName",
		"ParameterValue": "VPC-10140-PRD-ApplicationSGs"
	},
	{
		"ParameterKey": "InstanceProfilesStackStackName",
		"ParameterValue": "InstanceProfilesStack"
	},
	{
		"ParameterKey": "MyInstanceType",
		"ParameterValue": "m4.xlarge"
	},
	{
		"ParameterKey": "MyKeyName",
		"ParameterValue": "ac-paloalto-pubsub-key"
	},
	{
		"ParameterKey": "MyAMI",
		"ParameterValue": "ami-05a20ed554111d2fb"
	},
	{
		"ParameterKey": "PublicSubnet",
		"ParameterValue": "publicSharedSubnetAz1Id"
	},
	{
		"ParameterKey": "PrivateSubnet",
		"ParameterValue": "privateAccessSubnetAz1Id"
	},
	{
		"ParameterKey": "MyAZ",
		"ParameterValue": "AZ1"
	},
	{
		"ParameterKey": "MyPrivateIpAddressEth0Management",
		"ParameterValue": "10.140.0.80"
	},
	{
		"ParameterKey": "MyPrivateIpAddressEth1Public",
		"ParameterValue": "10.140.0.81"
	},
	{
		"ParameterKey": "MyPrivateIpAddressEth2Private",
		"ParameterValue": "10.140.4.82"
	}
]