[
  {
      "ParameterKey": "envPrefix",
      "ParameterValue": "VPC-10.140-Live"
  },
  {
      "ParameterKey": "CustomerAccount",
      "ParameterValue": "985715988019"
  },
  {
      "ParameterKey": "ManageMeSg",
      "ParameterValue": "sg-0fc9acb59ac02698f"
  },
  {
      "ParameterKey": "DomainMembersSg",
      "ParameterValue": "sg-0c1af86337060fdbd"
  },
  {
      "ParameterKey": "PrivateS3BucketName",
      "ParameterValue": "abbeycapital-private-deployment-bucket"
  },
  {
      "ParameterKey": "MyAMI",
      "ParameterValue": "ami-088f9db67b4afec52"
  },
  {
      "ParameterKey": "KeyPairName",
      "ParameterValue": "ac-priv-key"
  },
  {
      "ParameterKey": "InstanceType",
      "ParameterValue": "m5.xlarge"
  },
  {
      "ParameterKey": "Roles",
      "ParameterValue": "VolumeActivation"
  },
  {
      "ParameterKey": "Features",
      "ParameterValue": "Telnet-Client"
  },
  {
      "ParameterKey": "MySubnetId",
      "ParameterValue": "subnet-0588ca6f6c8bb6153"
  },
  {
      "ParameterKey": "MySg",
      "ParameterValue": "sg-0b4f89239493716ee"
  },
  {
      "ParameterKey": "MyInstanceProfile",
      "ParameterValue": "InstanceProfilesStack-SQLServerInstanceProfile-1D7QDOOLO02GW"
  },
  {
      "ParameterKey": "MyInstanceRole",
      "ParameterValue": "InstanceProfilesStack-SQLServerInstanceRole-FJNLG7A64T76"
  },
  {
      "ParameterKey": "MyPrivateIP",
      "ParameterValue": ""
  },
  {
      "ParameterKey": "MyTagName",
      "ParameterValue": "WinSQLServerAZ2"
  },
  {
      "ParameterKey": "MyWindowsName",
      "ParameterValue": "WinSQLServerAZ2"
  },
  {
      "ParameterKey": "MyVolCSize",
      "ParameterValue": "100"
  },
  {
      "ParameterKey": "MyVolCType",
      "ParameterValue": "gp2"
  },
  {
      "ParameterKey": "MyVolCEncrypt",
      "ParameterValue": "false"
  },
  {
      "ParameterKey": "MyVolESize",
      "ParameterValue": "600"
  },
  {
      "ParameterKey": "MyVolEType",
      "ParameterValue": "gp2"
  },
  {
      "ParameterKey": "MyVolEEncrypt",
      "ParameterValue": "false"
  },
  {
      "ParameterKey": "MyVolFSize",
      "ParameterValue": "250"
  },
  {
      "ParameterKey": "MyVolFType",
      "ParameterValue": "gp2"
  },
  {
      "ParameterKey": "MyVolFEncrypt",
      "ParameterValue": "false"
  },
  {
      "ParameterKey": "MyVolGSize",
      "ParameterValue": "200"
  },
  {
      "ParameterKey": "MyVolGType",
      "ParameterValue": "gp2"
  },
  {
      "ParameterKey": "MyVolGEncrypt",
      "ParameterValue": "false"
  },
  {
      "ParameterKey": "MyVolHSize",
      "ParameterValue": "730"
  },
  {
      "ParameterKey": "MyVolHType",
      "ParameterValue": "gp2"
  },
  {
      "ParameterKey": "MyVolHEncrypt",
      "ParameterValue": "false"
  },
  {
      "ParameterKey": "CmdIgnoreErrors",
      "ParameterValue": "false"
  },
  {
      "ParameterKey": "MySqlConfFileName",
      "ParameterValue": "SQL2017ConfigurationFileServerBasic.ini"
  },
  {
      "ParameterKey": "MySqlIsoFileName",
      "ParameterValue": "SW_DVD9_NTRL_SQL_Svr_Standard_Edtn_2017_64Bit_English_OEM_VL_X21-56945.ISO"
  },
  {
      "ParameterKey": "MyRole",
      "ParameterValue": "SQLServer"
  },
  {
      "ParameterKey": "MySSMSFileName",
      "ParameterValue": "SSMS-Setup-ENU.exe"
  },
  {
      "ParameterKey": "MySqlIsoDriveLetter",
      "ParameterValue": "H"
  },
  {
      "ParameterKey": "DCDNSName",
      "ParameterValue": "abbeycapital.local"
  },
  {
      "ParameterKey": "DCUsername",
      "ParameterValue": "dnmsupport"
  },
  {
      "ParameterKey": "DC1IP",
      "ParameterValue": "10.140.4.195"
  },
  {
      "ParameterKey": "DC2IP",
      "ParameterValue": "10.140.5.237"
  },
  {
      "ParameterKey": "DCBIOSName",
      "ParameterValue": "abbeycapital"
  },
  {
      "ParameterKey": "DCPassword",
      "ParameterValue": "r3mot3DNM!"
  }
]
