{
  "AWSTemplateFormatVersion" : "2010-09-09",
  "Description" : "Install and Configure CloudWatch Agent for Specified Component Instances",
  "Resources" : {
    "SSMParameterForCUSTOMSQL" : {
      "Type" : "AWS::SSM::Parameter",
      "Properties" : {
        "Name" : "AmazonCloudWatch-ApplicationInsights-SSMParameterForCUSTOMSQL",
        "Description" : "Parameter Config File For SSMParameterForCUSTOMSQL",
        "Type" : "String",
        "Value" : "{\"logs\":{\"logs_collected\":{\"windows_events\":{\"collect_list\":[{\"event_name\":\"Application\",\"event_levels\":[\"ERROR\",\"WARNING\",\"CRITICAL\"],\"log_group_name\":\"WINDOWS_EVENTS-CWApplicationInsights-Test\",\"event_format\":\"xml\"},{\"event_name\":\"System\",\"event_levels\":[\"ERROR\",\"WARNING\",\"CRITICAL\"],\"log_group_name\":\"WINDOWS_EVENTS-CWApplicationInsights-Test\",\"event_format\":\"xml\"},{\"event_name\":\"Security\",\"event_levels\":[\"ERROR\",\"WARNING\",\"CRITICAL\"],\"log_group_name\":\"WINDOWS_EVENTS-CWApplicationInsights-Test\",\"event_format\":\"xml\"}]},\"files\":{\"collect_list\":[{\"file_path\":\"C:\\\\Program Files\\\\Microsoft SQL Server\\\\MSSQL**.MSSQLSERVER\\\\MSSQL\\\\Log\\\\ERRORLOG\",\"log_group_name\":\"SQL_SERVER-CWApplicationInsights-Test\",\"encoding\":\"utf-16\"}]}}},\"metrics\":{\"append_dimensions\":{\"InstanceId\":\"${aws:InstanceId}\"},\"metrics_collected\":{\"Processor\":{\"measurement\":[{\"name\":\"% Processor Time\",\"unit\":\"Percent\"}],\"metrics_collection_interval\":60,\"resources\":[\"*\"]},\"SQLServer:Buffer Manager\":{\"measurement\":[{\"name\":\"Buffer cache hit ratio\",\"unit\":\"Percent\"},{\"name\":\"Page life expectancy\",\"unit\":\"Seconds\"}],\"metrics_collection_interval\":60,\"resources\":[\"*\"]},\"Paging File\":{\"measurement\":[{\"name\":\"% Usage\",\"unit\":\"Percent\"}],\"metrics_collection_interval\":60,\"resources\":[\"*\"]},\"Memory\":{\"measurement\":[{\"name\":\"% Committed Bytes In Use\",\"unit\":\"Percent\"},{\"name\":\"Available Mbytes\",\"unit\":\"Megabytes\"}],\"metrics_collection_interval\":60,\"resources\":[\"*\"]},\"PhysicalDisk\":{\"measurement\":[{\"name\":\"% Disk Time\",\"unit\":\"Percent\"}],\"metrics_collection_interval\":60,\"resources\":[\"*\"]},\"SQLServer:General Statistics\":{\"measurement\":[{\"name\":\"Processes blocked\",\"unit\":\"Count\"},{\"name\":\"User Connections\",\"unit\":\"Count\"}],\"metrics_collection_interval\":60,\"resources\":[\"*\"]},\"SQLServer:SQL Statistics\":{\"measurement\":[{\"name\":\"Batch Requests/sec\",\"unit\":\"Count\"}],\"metrics_collection_interval\":60,\"resources\":[\"*\"]},\"Network Interface\":{\"measurement\":[{\"name\":\"Bytes Total/sec\",\"unit\":\"Bytes\"}],\"metrics_collection_interval\":60,\"resources\":[\"*\"]},\"System\":{\"measurement\":[{\"name\":\"Processor Queue Length\",\"unit\":\"Count\"}],\"metrics_collection_interval\":60,\"resources\":[\"*\"]},\"SQLServer:Locks\":{\"measurement\":[{\"name\":\"Number of Deadlocks/sec\",\"unit\":\"Count\"}],\"metrics_collection_interval\":60,\"resources\":[\"*\"]}}}}"
      }
    },
    "SSMAssociationForCUSTOMSQL1609" : {
      "Type" : "AWS::SSM::Association",
      "DependsOn" : "SSMParameterForCUSTOMSQL",
      "Properties" : {
        "Name" : "AWSEC2-ApplicationInsightsCloudwatchAgentInstallAndConfigure",
        "AssociationName" : "AmazonCloudWatch-ApplicationInsights-SSMAssociationForCUSTOMSQL-1",
        "ScheduleExpression" : "cron(0/30 * * * ? *)",
        "Targets" : [ {
          "Key" : "InstanceIds",
          "Values" : [ "i-037e1c444af52e512" ]
        } ],
        "Parameters" : {
          "parameterStoreName" : [ "AmazonCloudWatch-ApplicationInsights-SSMParameterForCUSTOMSQL" ]
        }
      }
    },
    "SSMParameterForCUSTOMwebservers" : {
      "Type" : "AWS::SSM::Parameter",
      "Properties" : {
        "Name" : "AmazonCloudWatch-ApplicationInsights-SSMParameterForCUSTOMwebservers",
        "Description" : "Parameter Config File For SSMParameterForCUSTOMwebservers",
        "Type" : "String",
        "Value" : "{\"logs\":{\"logs_collected\":{\"windows_events\":{\"collect_list\":[{\"event_name\":\"Application\",\"event_levels\":[\"ERROR\",\"WARNING\",\"CRITICAL\"],\"log_group_name\":\"WINDOWS_EVENTS-CWApplicationInsights-Test\",\"event_format\":\"xml\"},{\"event_name\":\"System\",\"event_levels\":[\"ERROR\",\"WARNING\",\"CRITICAL\"],\"log_group_name\":\"WINDOWS_EVENTS-CWApplicationInsights-Test\",\"event_format\":\"xml\"},{\"event_name\":\"Security\",\"event_levels\":[\"ERROR\",\"WARNING\",\"CRITICAL\"],\"log_group_name\":\"WINDOWS_EVENTS-CWApplicationInsights-Test\",\"event_format\":\"xml\"}]},\"files\":{\"collect_list\":[{\"file_path\":\"C:\\\\inetpub\\\\logs\\\\LogFiles\\\\**\",\"log_group_name\":\"IIS-CWApplicationInsights-Test\",\"encoding\":\"ascii\"}]}}},\"metrics\":{\"append_dimensions\":{\"InstanceId\":\"${aws:InstanceId}\"},\"metrics_collected\":{\".NET CLR Exceptions\":{\"measurement\":[{\"name\":\"# of Exceps Thrown / Sec\",\"unit\":\"Count\"}],\"metrics_collection_interval\":60,\"resources\":[\"*\"]},\"Processor\":{\"measurement\":[{\"name\":\"% Processor Time\",\"unit\":\"Percent\"}],\"metrics_collection_interval\":60,\"resources\":[\"*\"]},\".NET CLR Memory\":{\"measurement\":[{\"name\":\"# Total Committed Bytes\",\"unit\":\"Bytes\"},{\"name\":\"% Time in GC\",\"unit\":\"Percent\"}],\"metrics_collection_interval\":60,\"resources\":[\"*\"]},\"ASP.NET Applications\":{\"measurement\":[{\"name\":\"Requests in Application Queue\",\"unit\":\"Count\"}],\"metrics_collection_interval\":60,\"resources\":[\"*\"]},\"Memory\":{\"measurement\":[{\"name\":\"% Committed Bytes In Use\",\"unit\":\"Percent\"},{\"name\":\"Available Mbytes\",\"unit\":\"Megabytes\"}],\"metrics_collection_interval\":60,\"resources\":[\"*\"]},\"ASP.NET\":{\"measurement\":[{\"name\":\"Requests Queued\",\"unit\":\"Count\"},{\"name\":\"Application Restarts\",\"unit\":\"Count\"}],\"metrics_collection_interval\":60,\"resources\":[\"*\"]}}}}"
      }
    },
    "SSMAssociationForCUSTOMwebservers1609" : {
      "Type" : "AWS::SSM::Association",
      "DependsOn" : "SSMParameterForCUSTOMwebservers",
      "Properties" : {
        "Name" : "AWSEC2-ApplicationInsightsCloudwatchAgentInstallAndConfigure",
        "AssociationName" : "AmazonCloudWatch-ApplicationInsights-SSMAssociationForCUSTOMwebservers-1",
        "ScheduleExpression" : "cron(0/30 * * * ? *)",
        "Targets" : [ {
          "Key" : "InstanceIds",
          "Values" : [ "i-0922b4d170690aef1" ]
        } ],
        "Parameters" : {
          "parameterStoreName" : [ "AmazonCloudWatch-ApplicationInsights-SSMParameterForCUSTOMwebservers" ]
        }
      }
    }
  }
}
