{
"WSFCFileServer": {
    "Type": "AWS::EC2::Instance",
    "Condition": "IsTwoNode",
    "Metadata": {
      "AWS::CloudFormation::Authentication": {
                  "S3AccessCreds": {
                      "type": "S3",
                      "roleName": {
                          "Ref": "MyInstanceRole"
                      },
                      "buckets": {
                              "Ref": "PrivateS3BucketName"
                      }
                  }
              },
        "AWS::CloudFormation::Init": {
            "configSets": {
                "config": [
                    "setup",
                    "time",
                    "rename",
                    "joindomain",
                    "FetchResources",
                    "QuickStartSetup",
                    "Prep",
                    "Cleanup",
                    "Finalize"
                ]
            },
            "setup": {
                      "packages": {
                          "msi": {
                              "awscli": "https://s3.amazonaws.com/aws-cli/AWSCLI64.msi"
                          }
                      },
                      "files": {
                          "c:\\cfn\\cfn-hup.conf": {
                              "content": {
                                  "Fn::Join": [
                                      "",
                                      [
                                          "[main]\n",
                                          "stack=",
                                          {
                                              "Ref": "AWS::StackId"
                                          },
                                          "\n",
                                          "region=",
                                          {
                                              "Ref": "AWS::Region"
                                          },
                                          "\n"
                                      ]
                                  ]
                              }
                          },
                          "c:\\cfn\\hooks.d\\cfn-auto-reloader.conf": {
                              "content": {
                                  "Fn::Join": [
                                      "",
                                      [
                                          "[cfn-auto-reloader-hook]\n",
                                          "triggers=post.update\n",
                                          "path=Resources.WindowsServer.Metadata.AWS::CloudFormation::Init\n",
                                          "action=cfn-init.exe -v -c additional_config -s ",
                                          {
                                              "Ref": "AWS::StackId"
                                          },
                                          " -r WindowsServerAZ1",
                                          " --region ",
                                          {
                                              "Ref": "AWS::Region"
                                          },
                                          "\n"
                                      ]
                                  ]
                              }
                          },
                          "c:\\cfn\\scripts\\domain-join.ps1" : {
                            "content" : { "Fn::Join" : [ "", [
                              "Get-NetAdapter | Set-DnsClientServerAddress -ServerAddresses ('" ,
                                { "Ref" : "DC1IP" } ,
                                "' ,'" , { "Ref" : "DC2IP" } ,"'); \n",
                              "Get-NetIPConfiguration; \n",
                              "$username = '", { "Ref" : "DCBIOSName" }, "\\", { "Ref" : "DCUsername" }, "' ; \n",
                              "$password = '", { "Ref" : "DCPassword" }, "' ; \n",
                              "$credential = New-Object System.Management.Automation.PSCredential($username,$password) ; \n",
                              "Add-Computer -DomainName ",
                                { "Ref" : "DCDNSName" },
                                " -Credential $credential -Force ; \n",
                               "\n"
                            ]]}
                          }
                      },
                      "commands": {
                          "0-get-ec2cloud": {
                              "command": {
                                  "Fn::Join": [
                                      "",
                                      [
                                          "C:\\\"Program Files\"\\Amazon\\AWSCLI\\aws s3 cp s3://",
                                          {
                                                  "Ref": "PrivateS3BucketName"
                                          },
                                          "/Windows/AWS.EC2.Windows.CloudWatch.json c:\\cfn\\AWS.EC2.Windows.CloudWatch.json"
                                      ]
                                  ]
                              },
                              "ignoreErrors": {
                                  "Ref": "CmdIgnoreErrors"
                              },
                              "waitAfterCompletion": "5"
                          },
                          "1-install-roles": {
                              "command": {
                                  "Fn::Join": [
                                      "",
                                      [
                                          "if not \"None\" EQU \"",
                                          {
                                              "Ref": "Roles"
                                          },
                                          "\" (powershell.exe add-windowsfeature ",
                                          {
                                              "Ref": "Roles"
                                          },
                                          " -includeallsubfeature)"
                                      ]
                                  ]
                              },
                              "ignoreErrors": {
                                  "Ref": "CmdIgnoreErrors"
                              },
                              "waitAfterCompletion": "5"
                          },
                          "2-install-features": {
                              "command": {
                                  "Fn::Join": [
                                      "",
                                      [
                                          "If Not \"None\" EQU \"",
                                          {
                                              "Ref": "Features"
                                          },
                                          "\" (powershell.exe add-windowsfeature ",
                                          {
                                              "Ref": "Features"
                                          },
                                          " -includeallsubfeature )"
                                      ]
                                  ]
                              },
                              "ignoreErrors": {
                                  "Ref": "CmdIgnoreErrors"
                              },
                              "waitAfterCompletion": "5"
                          },
                          "3-cloudwatch": {
                              "command": "copy C:\\cfn\\AWS.EC2.Windows.CloudWatch.json \"%PROGRAMFILES%\"\\Amazon\\Ec2ConfigService\\Settings\\AWS.EC2.Windows.CloudWatch.json",
                              "ignoreErrors": {
                                  "Ref": "CmdIgnoreErrors"
                              },
                              "waitAfterCompletion": "5"
                          },
                          "4-set-firewall-disabled": {
                              "command": "PowerShell.exe set-netfirewallprofile -all -DefaultInboundAction Allow -DefaultOutboundAction Allow",
                              "ignoreErrors": {
                                  "Ref": "CmdIgnoreErrors"
                              },
                              "waitAfterCompletion": "5"
                          },
                          "5-choco": {
                              "command": "PowerShell.exe -NoProfile -ExecutionPolicy Bypass -Command \"iex ((new-object net.webclient).DownloadString('https://chocolatey.org/install.ps1'))\" && SET PATH=%PATH%;%ALLUSERSPROFILE%\\chocolatey\\bin",
                              "ignoreErrors": {
                                  "Ref": "CmdIgnoreErrors"
                              },
                              "waitAfterCompletion": "5"
                          }
                      },
                      "services": {
                          "windows": {
                              "cfn-hup": {
                                  "enabled": "true",
                                  "ensureRunning": "true",
                                  "files": [
                                      "c:\\cfn\\cfn-hup.conf",
                                      "c:\\cfn\\hooks.d\\cfn-auto-reloader.conf"
                                  ]
                              }
                          }
                      }
                  },
                  "time": {
    "commands": {
        "1-stop-time": {
            "command": "net stop w32time",
            "ignoreErrors": "true",
            "waitAfterCompletion": "2"
        },
        "2-set-timesource": {
            "command": {
                "Fn::Join": [
                    "",
                    [
                        "w32tm /config /manualpeerlist:\"",
                        "0.amazon.pool.ntp.org ",
                        "1.amazon.pool.ntp.org ",
                        "2.amazon.pool.ntp.org ",
                        "3.amazon.pool.ntp.org ",
                        " ",
                        "\" /syncfromflags:manual /reliable:yes"
                    ]
                ]
            },
            "ignoreErrors": {
                "Ref": "CmdIgnoreErrors"
            },
            "waitAfterCompletion": "5"
        },
        "3-set-timezone": {
            "command": "tzutil /s \"GMT Standard Time\"",
            "ignoreErrors": {
                "Ref": "CmdIgnoreErrors"
            },
            "waitAfterCompletion": "5"
        }
    },
    "services": {
        "windows": {
            "w32time": {
                "enabled": "true",
                "ensureRunning": "true",
                "commands": [
                    "1-stop-time"
                ]
            }
        }
    }
},
            "rename": {
                      "commands": {
                          "1-rename-computer": {
                              "command": {
                                  "Fn::Join": [
                                      "",
                                      [
                                          "powershell.exe -ExecutionPolicy Unrestricted Rename-Computer -NewName \"",
                                          {
                                              "Ref": "MyWindowsNameFileServer"
                                          },
                                          "\" -Restart \n"
                                      ]
                                  ]
                              },
                              "ignoreErrors": "true",
                              "waitAfterCompletion": "2"
                          }
                      }
                  },
                  "joindomain" : {
                    "commands" : {
                      "1-join-domain" : {
                        "command" : "powerShell.exe -ExecutionPolicy UnRestricted -File C:\\cfn\\scripts\\domain-join.ps1 \n",
                        "ignoreErrors" : "true",
                        "waitAfterCompletion" : "120"
                      },
                      "2-restart" : {
                        "command" : "powerShell.exe -ExecutionPolicy UnRestricted Restart-Computer -force \n",
                        "ignoreErrors" : "true",
                        "waitAfterCompletion" : "forever"
                      },
                      "3-restart-again" : {
                        "command" : "powerShell.exe -ExecutionPolicy UnRestricted Restart-Computer -force \n",
                        "ignoreErrors" : "true",
                        "waitAfterCompletion" : "forever"
                      }
                    }
                  },
            "FetchResources": {
                "files": {
                    "C:\\cfn\\scripts\\Unzip-Archive.ps1": {
                        "source": {
                            "Fn::Sub": [
                                "https://${QSS3BucketName}.${QSS3Region}.amazonaws.com/${QSS3KeyPrefix}submodules/quickstart-microsoft-utilities/scripts/Unzip-Archive.ps1",
                                {
                                    "QSS3Region": {
                                        "Fn::If": [
                                            "GovCloudCondition",
                                            "s3-us-gov-west-1",
                                            "s3"
                                        ]
                                    }
                                }
                            ]
                        }
                    },
                    "C:\\cfn\\modules\\AWSQuickStart.zip": {
                        "source": {
                            "Fn::Sub": [
                                "https://${QSS3BucketName}.${QSS3Region}.amazonaws.com/${QSS3KeyPrefix}submodules/quickstart-microsoft-utilities/modules/AWSQuickStart.zip",
                                {
                                    "QSS3Region": {
                                        "Fn::If": [
                                            "GovCloudCondition",
                                            "s3-us-gov-west-1",
                                            "s3"
                                        ]
                                    }
                                }
                            ]
                        }
                    },
                    "C:\\cfn\\scripts\\Enable-CredSSP.ps1": {
                        "source": {
                            "Fn::Sub": [
                                "https://${QSS3BucketName}.${QSS3Region}.amazonaws.com/${QSS3KeyPrefix}submodules/quickstart-microsoft-utilities/scripts/Enable-CredSSP.ps1",
                                {
                                    "QSS3Region": {
                                        "Fn::If": [
                                            "GovCloudCondition",
                                            "s3-us-gov-west-1",
                                            "s3"
                                        ]
                                    }
                                }
                            ]
                        }
                    },
                    "C:\\cfn\\scripts\\Create-Share.ps1": {
                        "source": {
                            "Fn::Sub": [
                                "https://${QSS3BucketName}.${QSS3Region}.amazonaws.com/${QSS3KeyPrefix}submodules/quickstart-microsoft-utilities/scripts/Create-Share.ps1",
                                {
                                    "QSS3Region": {
                                        "Fn::If": [
                                            "GovCloudCondition",
                                            "s3-us-gov-west-1",
                                            "s3"
                                        ]
                                    }
                                }
                            ]
                        }
                    },
                    "C:\\cfn\\scripts\\Test-ADUser.ps1": {
                        "source": {
                            "Fn::Sub": [
                                "https://${QSS3BucketName}.${QSS3Region}.amazonaws.com/${QSS3KeyPrefix}scripts/Test-ADUser.ps1",
                                {
                                    "QSS3Region": {
                                        "Fn::If": [
                                            "GovCloudCondition",
                                            "s3-us-gov-west-1",
                                            "s3"
                                        ]
                                    }
                                }
                            ]
                        }
                    },
                    "C:\\cfn\\scripts\\AddUserToGroup.ps1": {
                        "source": {
                            "Fn::Sub": [
                                "https://${QSS3BucketName}.${QSS3Region}.amazonaws.com/${QSS3KeyPrefix}scripts/AddUserToGroup.ps1",
                                {
                                    "QSS3Region": {
                                        "Fn::If": [
                                            "GovCloudCondition",
                                            "s3-us-gov-west-1",
                                            "s3"
                                        ]
                                    }
                                }
                            ]
                        }
                    },
                    "C:\\cfn\\scripts\\Disable-CredSSP.ps1": {
                        "source": {
                            "Fn::Sub": [
                                "https://${QSS3BucketName}.${QSS3Region}.amazonaws.com/${QSS3KeyPrefix}submodules/quickstart-microsoft-utilities/scripts/Disable-CredSSP.ps1",
                                {
                                    "QSS3Region": {
                                        "Fn::If": [
                                            "GovCloudCondition",
                                            "s3-us-gov-west-1",
                                            "s3"
                                        ]
                                    }
                                }
                            ]
                        }
                    }
                }
            },
            "QuickStartSetup": {
                "commands": {
                    "a-set-execution-policy": {
                        "command": "powershell.exe -Command \"Set-ExecutionPolicy RemoteSigned -Force\"",
                        "waitAfterCompletion": "0"
                    },
                    "b-unpack-quickstart-module": {
                        "command": "powershell.exe -Command C:\\cfn\\scripts\\Unzip-Archive.ps1 -Source C:\\cfn\\modules\\AWSQuickStart.zip -Destination C:\\Windows\\system32\\WindowsPowerShell\\v1.0\\Modules\\",
                        "waitAfterCompletion": "0"
                    },
                    "c-init-quickstart-module": {
                        "command": {
                            "Fn::Join": [
                                "",
                                [
                                    "powershell.exe -Command \"",
                                    "New-AWSQuickStartWaitHandle -Handle '",
                                    {
                                        "Ref": "WSFCFileServerWaitHandle"
                                    },
                                    "'\""
                                ]
                            ]
                        },
                        "waitAfterCompletion": "0"
                    }
                }
            },
            "Prep": {
                "commands": {
                    "a-rename-computer": {
                        "command": {
                            "Fn::Join": [
                                "",
                                [
                                    "powershell.exe -Command \"C:\\cfn\\scripts\\Rename-Computer.ps1 -Restart -NewName '",
                                    {
                                        "Ref": "WSFCFileServerNetBIOSName"
                                    },
                                    "'\""
                                ]
                            ]
                        },
                        "waitAfterCompletion": "forever"
                    },
                    "c-enable-credssp": {
                        "command": "powershell.exe -ExecutionPolicy RemoteSigned -Command \"C:\\cfn\\scripts\\Enable-CredSSP.ps1",
                        "waitAfterCompletion": "0"
                    },
                    "d-add-domadmin-user-to-group": {
                        "command": {
                            "Fn::Join": [
                                "",
                                [
                                    "powershell.exe ",
                                    "-ExecutionPolicy RemoteSigned ",
                                    "-Command \"",
                                    " C:\\cfn\\scripts\\AddUserToGroup.ps1 -UserName '",
                                    {
                                        "Ref": "DomainAdminUser"
                                    },
                                    "' -ServerName '",
                                    {
                                        "Ref": "WSFCFileServerNetBIOSName"
                                    },
                                    "' -DomainNetBIOSName '",
                                    {
                                        "Ref": "DomainNetBIOSName"
                                    },
                                    "' -GroupName 'Administrators'\""
                                ]
                            ]
                        },
                        "waitAfterCompletion": "0"
                    },
                    "e-wait-for-ad-replication": {
                        "command": {
                            "Fn::Join": [
                                "",
                                [
                                    "powershell.exe ",
                                    "-ExecutionPolicy RemoteSigned ",
                                    "-Command \"",
                                    "C:\\cfn\\scripts\\Test-ADUser.ps1 -UserName '",
                                    {
                                        "Ref": "SQLServiceAccount"
                                    },
                                    "' -Wait -TimeoutMinutes 30 -IntervalMinutes 1\""
                                ]
                            ]
                        },
                        "waitAfterCompletion": "0"
                    },
                    "f-add-sqlservice-user-to-group": {
                        "command": {
                            "Fn::Join": [
                                "",
                                [
                                    "powershell.exe ",
                                    "-ExecutionPolicy RemoteSigned ",
                                    "-Command \"",
                                    "C:\\cfn\\scripts\\AddUserToGroup.ps1 -UserName '",
                                    {
                                        "Ref": "SQLServiceAccount"
                                    },
                                    "' -ServerName '",
                                    {
                                        "Ref": "WSFCFileServerNetBIOSName"
                                    },
                                    "' -DomainNetBIOSName '",
                                    {
                                        "Ref": "DomainNetBIOSName"
                                    },
                                    "' -GroupName 'Administrators'\""
                                ]
                            ]
                        },
                        "waitAfterCompletion": "0"
                    }
                }
            },
            "Cleanup": {
                "commands": {
                    "a-disable-credssp": {
                        "command": "powershell.exe -ExecutionPolicy RemoteSigned -Command \"C:\\cfn\\scripts\\Disable-CredSSP.ps1\"",
                        "waitAfterCompletion": "0"
                    }
                }
            },
            "Finalize": {
                "commands": {
                    "a-signal-success": {
                        "command": "powershell -Command \"Write-AWSQuickStartStatus\"",
                        "waitAfterCompletion": "0"
                    }
                }
            }
        }
    },
    "Properties": {
        "ImageId": {
            "Fn::FindInMap": [
                "AWSAMIRegionMap",
                {
                    "Ref": "AWS::Region"
                },
                "WS2012R2"
            ]
        },
        "IamInstanceProfile": {
            "Ref": "WSFCProfile"
        },
        "InstanceType": {
            "Ref": "WSFCFileServerInstanceType"
        },
        "NetworkInterfaces": [
            {
                "DeleteOnTermination": "true",
                "DeviceIndex": 0,
                "SubnetId": {
                    "Fn::If": [
                        "ThirdAzIsWitness",
                        {
                            "Ref": "PrivateSubnet3ID"
                        },
                        {
                            "Ref": "PrivateSubnet1ID"
                        }
                    ]
                },
                "PrivateIpAddresses": [
                    {
                        "Primary": "true",
                        "PrivateIpAddress": {
                            "Ref": "WSFCFileServerPrivateIP"
                        }
                    }
                ],
                "GroupSet": [
                    {
                        "Ref": "DomainMemberSGID"
                    },
                    {
                        "Ref": "WSFCSecurityGroup"
                    },
                    {
                        "Ref": "WSFCClientSecurityGroup"
                    }
                ]
            }
        ],
        "Tags": [
            {
                "Key": "Name",
                "Value": {
                    "Ref": "WSFCFileServerNetBIOSName"
                }
            }
        ],
        "BlockDeviceMappings": [
            {
                "DeviceName": "/dev/sda1",
                "Ebs": {
                    "VolumeSize": "100",
                    "VolumeType": "gp2"
                }
            }
        ],
        "KeyName": {
            "Ref": "KeyPairName"
        },
        "UserData": {
            "Fn::Base64": {
                "Fn::Join": [
                    "",
                    [
                        "<persist>false</persist>\n",
                        "<powershell>\n",
                        "</powershell> \n",
                        "<script>\n",
                        "cfn-init.exe -v -c config -s ",
                        {
                            "Ref": "AWS::StackId"
                        },
                        " -r WindowsServerAZ1",
                        " --region ",
                        {
                            "Ref": "AWS::Region"
                        },
                        " \n",
                        "cfn-signal.exe --success true --region ",
                        {
                            "Ref": "AWS::Region"
                        },
                        " ",
                        {
                            "Fn::Base64": {
                                "Ref": "AServerWaitHandle"
                            }
                        },
                        " \n",
                        "</script>\n",
                        "<persist>False</persist> \n"
                    ]
                ]
            }
        }
    }
}
}
