{
    "AWSTemplateFormatVersion": "2010-09-09",
    "Description": "Create a windows server with MS SQL 2012, join domain.",
    "Parameters": {
        "envPrefix": {
            "Description": "Environment name prefix.",
            "Type": "String",
            "Default": "Shared-10.140"
        },
        "CustomerAccount": {
            "Description": "Customer account used for the reboot alarm.",
            "Type": "String",
            "Default": "985715988019"
        },
        "ManageMeSg": {
            "Description": "Manage Me Sg",
            "Type": "String"
        },
        "DomainMembersSg": {
            "Description": "Domain Members Sg",
            "Type": "String"
        },
        "PrivateS3BucketName": {
            "Description": "PrivateS3BucketName",
            "Type": "String"
        },
        "MyAMI": {
            "Description": "AMI - ami-5ef8ebb4 = Microsoft Windows Server 2012 R2 Base",
            "Type": "String",
            "AllowedValues": [
                "ami-5ef8ebb4",
                "ami-088f9db67b4afec52"
            ]
        },
        "KeyPairName": {
            "Description": "Name of an existing Amazon EC2 key pair",
            "Type": "String"
        },
        "InstanceType": {
            "Description": "Amazon EC2 instance type",
            "Type": "String",
            "AllowedValues": [
                "t1.micro",
                "t2.micro",
                "t2.small",
                "t2.medium",
                "m1.small",
                "m1.medium",
                "t2.large",
                "m1.large",
                "m1.xlarge",
                "m2.xlarge",
                "m2.2xlarge",
                "m2.4xlarge",
                "m3.medium",
                "m3.large",
                "m3.xlarge",
                "m3.2xlarge",
                "m5.xlarge",
                "c1.medium",
                "c1.xlarge",
                "c3.large",
                "c3.xlarge",
                "c3.2xlarge",
                "c3.4xlarge",
                "c3.8xlarge",
                "c4.large",
                "c4.xlarge",
                "c4.2xlarge",
                "c4.4xlarge",
                "c4.8xlarge",
                "g2.2xlarge",
                "r3.large",
                "r3.xlarge",
                "r3.2xlarge",
                "r3.4xlarge",
                "r3.8xlarge",
                "i2.xlarge",
                "i2.2xlarge",
                "i2.4xlarge",
                "i2.8xlarge",
                "d2.xlarge",
                "d2.2xlarge",
                "d2.4xlarge",
                "d2.8xlarge",
                "hi1.4xlarge",
                "hs1.8xlarge",
                "cr1.8xlarge",
                "cc2.8xlarge",
                "cg1.4xlarge",
                "m4.xlarge",
                "m4.2xlarge"
            ]
        },
        "Roles": {
            "Description": "A SPACE seperated list of roles that you want to enable on this instance. Valid values are AD-Certificate, AD-Domain-Services, ADLDS, DHCP, DNS, Fax, File-Services, NPAS, Print-Services, Web-Server, and WDS.",
            "Type": "String",
            "Default": "None"
        },
        "Features": {
            "Description": "A COMA seperated list of features that you want to enable on this instance. Valid values are NET-Framework, BITS, BitLocker, BranchCache, CMAK, Desktop-Experience, DAMC, Failover-Clustering, GPMC, Ink-Handwriting, Internet-Print-Client, ISNS, LPR-Port-Monitor, MSMQ, Multipath-IO, NLB, PNRP, qWave, Remote-Assistance, RDC, RPC-over-HTTP-Proxy, Simple-TCPIP, SMTP-Server, SNMP-Services, Storage-Mgr-SANS, Subsystem-UNIX-Apps, Telnet-Client, Telnet-Server, TFTP-Client, Biometric-Framework, Windows-Internal-DB, PowerShell-ISE, Backup-Features, Migration, WSRM, TIFF-IFilter, WinRM-IIS-Ext, WINS-Server, Wireless-Networking, and XPS-Viewer.",
            "Type": "String",
            "Default": "None"
        },
        "MySubnetId": {
            "Description": "Subnet Id of an existing subnet in your Virtual Private Cloud (VPC)",
            "Type": "String"
        },
        "MySg": {
            "Description": "Server Security Group",
            "Type": "String"
        },
        "MyInstanceProfile": {
            "Description": "Instance Profile that will allow me to getfiles from s3",
            "Type": "String"
        },
        "MyInstanceRole": {
            "Description": "role that the profile gives me access to",
            "Type": "String"
        },
        "MyPrivateIP": {
            "Description": "Private IP Address to assign - leave blank for auto assignment",
            "Type": "String",
            "MinLength": "0",
            "MaxLength": "18",
            "Default": ""
        },
        "MyTagName": {
            "Description": "Tagname instance name value that will be set for the instance",
            "Type": "String",
            "MinLength": "0",
            "MaxLength": "255",
            "AllowedPattern": "^[0-9A-Za-z]{1}([A-Za-z0-9.-]*)$",
            "ConstraintDescription": "must set a tag name to be used as the instance tag"
        },
        "MyWindowsName": {
            "Description": "The Windows name to be given to the instance",
            "Type": "String",
            "MinLength": "1",
            "MaxLength": "15",
            "Default": "WinDesktop"
        },
        "MyVolCSize": {
            "Type": "Number",
            "MinValue": "20",
            "MaxValue": "16000"
        },
        "MyVolCType": {
            "Type": "String",
            "AllowedValues": [
                "gp2",
                "io2",
                "st1",
                "sc1"
            ],
            "Default": "gp2"
        },
        "MyVolCEncrypt": {
            "Type": "String",
            "AllowedValues": [
                "true",
                "false"
            ],
            "Default": "false"
        },
        "MyVolESize": {
            "Type": "Number",
            "MinValue": "0",
            "MaxValue": "16000"
        },
        "MyVolEType": {
            "Type": "String",
            "AllowedValues": [
                "gp2",
                "io2",
                "st1",
                "sc1"
            ],
            "Default": "gp2"
        },
        "MyVolEEncrypt": {
            "Type": "String",
            "AllowedValues": [
                "true",
                "false"
            ],
            "Default": "false"
        },
        "MyVolFSize": {
            "Type": "Number",
            "MinValue": "0",
            "MaxValue": "16000"
        },
        "MyVolFType": {
            "Type": "String",
            "AllowedValues": [
                "gp2",
                "io2",
                "st1",
                "sc1"
            ],
            "Default": "gp2"
        },
        "MyVolFEncrypt": {
            "Type": "String",
            "AllowedValues": [
                "true",
                "false"
            ],
            "Default": "false"
        },
        "MyVolGSize": {
            "Type": "Number",
            "MinValue": "0",
            "MaxValue": "16000"
        },
        "MyVolGType": {
            "Type": "String",
            "AllowedValues": [
                "gp2",
                "io2",
                "st1",
                "sc1"
            ],
            "Default": "gp2"
        },
        "MyVolGEncrypt": {
            "Type": "String",
            "AllowedValues": [
                "true",
                "false"
            ],
            "Default": "false"
        },
        "MyVolHSize": {
            "Type": "Number",
            "MinValue": "0",
            "MaxValue": "16000"
        },
        "MyVolHType": {
            "Type": "String",
            "AllowedValues": [
                "gp2",
                "io2",
                "st1",
                "sc1"
            ],
            "Default": "gp2"
        },
        "MyVolHEncrypt": {
            "Type": "String",
            "AllowedValues": [
                "true",
                "false"
            ],
            "Default": "false"
        },
        "CmdIgnoreErrors": {
            "Type": "String",
            "AllowedValues": [
                "true",
                "false"
            ],
            "Default": "false"
        },
        "MySqlConfFileName": {
            "Type": "String",
            "Description": "Configuration file for MS SQL installation stored in S3 Bucket"
        },
        "MySqlIsoFileName": {
            "Type": "String",
            "Description": "Iso file for MS SQL installation stored in S3 Bucket"
        },
        "MySSMSFileName": {
            "Type": "String",
            "Description": "SMMS file for MS SQL installation stored in S3 Bucket"
        },
        "MyRole": {
          "AllowedValues": [
              "SQLServer",
              "Witness"
          ],
            "Type": "String",
            "Description": "Iso file for MS SQL installation stored in S3 Bucket"
        },
        "MySqlIsoDriveLetter": {
          "AllowedValues": [
              "D",
              "H"
          ],
            "Type": "String",
            "Description": "drive letter for ISO mounted image D for Witness and H for SQL server"
        },
        "DCUsername" : {
          "Description": "Domain controller admin user (to which the three machines are to be added)",
          "MinLength": "1",
          "NoEcho": "true",
          "Type": "String"
        },
        "DCPassword" : {
          "Description": "Domain controller password",
          "MinLength": "1",
          "NoEcho": "true",
          "Type": "String"
        },
        "DC1IP" : {
          "Description" : "IP Address of first domain DNS server",
          "Type" : "String",
          "MinLength": "7",
          "MaxLength": "15",
          "AllowedPattern": "(\\d{1,3})\\.(\\d{1,3})\\.(\\d{1,3})\\.(\\d{1,3})",
          "ConstraintDescription": "must a DC IP address"
        },
        "DC2IP" : {
          "Description" : "IP Address of 2nd domain DNS server",
          "Type" : "String",
          "MinLength": "7",
          "MaxLength": "15",
          "AllowedPattern": "(\\d{1,3})\\.(\\d{1,3})\\.(\\d{1,3})\\.(\\d{1,3})",
          "ConstraintDescription": "must a DC IP address"
        },
        "DCDNSName" : {
          "Description" : "Domain Controller DNS Name",
          "Type" : "String"
        },
        "DCBIOSName" : {
          "Description" : "Domain Controller BIOS Name",
          "Type" : "String"
        },
    },
    "Mappings": {
        "CodeDeployRegionMap": {
            "eu-west-1": {
                "bucket": "aws-codedeploy-eu-west-1"
            },
            "us-east-1": {
                "bucket": "aws-codedeploy-us-east-1"
            },
            "us-west-2": {
                "bucket": "aws-codedeploy-us-west-2"
            },
            "us-west-1": {
                "bucket": "aws-codedeploy-us-west-1"
            },
            "eu-central-1": {
                "bucket": "aws-codedeploy-us-east-1"
            }
        }
    },
    "Conditions": {
        "IsSQLServer": {
            "Fn::Not": [
                {
                    "Fn::Equals": [
                        {
                            "Ref": "MyRole"
                        },
                        "Witness"
                    ]
                }
            ]
        },
        "RequestedPrivateIP": {
            "Fn::Not": [
                {
                    "Fn::Equals": [
                        {
                            "Ref": "MyPrivateIP"
                        },
                        ""
                    ]
                }
            ]
        }
    },
    "Resources": {
        "WindowsServer": {
            "Type": "AWS::EC2::Instance",
            "Metadata": {
                "AWS::CloudFormation::Authentication": {
                    "S3AccessCreds": {
                        "type": "S3",
                        "roleName": {
                            "Ref": "MyInstanceRole"
                        },
                        "buckets": {
                                "Ref": "PrivateS3BucketName"
                        }
                    }
                },
                "AWS::CloudFormation::Init": {
                    "configSets": {
                        "config": [
                            "setup",
                            "time",
                            "rename",
                            "sql_install",
                            "finalise"
                        ],
                        "additional_config": [
                            "update_config"
                        ]
                    },
                    "setup": {
                        "packages": {
                            "msi": {
                                "awscli": "https://s3.amazonaws.com/aws-cli/AWSCLI64.msi"
                            }
                        },
                        "files": {
                            "c:\\cfn\\cfn-hup.conf": {
                                "content": {
                                    "Fn::Join": [
                                        "",
                                        [
                                            "[main]\n",
                                            "stack=",
                                            {
                                                "Ref": "AWS::StackId"
                                            },
                                            "\n",
                                            "region=",
                                            {
                                                "Ref": "AWS::Region"
                                            },
                                            "\n"
                                        ]
                                    ]
                                }
                            },
                            "c:\\cfn\\hooks.d\\cfn-auto-reloader.conf": {
                                "content": {
                                    "Fn::Join": [
                                        "",
                                        [
                                            "[cfn-auto-reloader-hook]\n",
                                            "triggers=post.update\n",
                                            "path=Resources.WindowsServer.Metadata.AWS::CloudFormation::Init\n",
                                            "action=cfn-init.exe -v -c additional_config -s ",
                                            {
                                                "Ref": "AWS::StackId"
                                            },
                                            " -r WindowsServer",
                                            " --region ",
                                            {
                                                "Ref": "AWS::Region"
                                            },
                                            "\n"
                                        ]
                                    ]
                                }
                            },
                            "c:\\cfn\\scripts\\domain-join.ps1" : {
                              "content" : { "Fn::Join" : [ "", [
                                "Get-NetAdapter | Set-DnsClientServerAddress -ServerAddresses ('" ,
                                  { "Ref" : "DC1IP" } ,
                                  "' ,'" , { "Ref" : "DC2IP" } ,"'); \n",
                                "Get-NetIPConfiguration; \n",
                                "$username = '", { "Ref" : "DCBIOSName" }, "\\", { "Ref" : "DCUsername" }, "' ; \n",
                                "$password = '", { "Ref" : "DCPassword" }, "' ; \n",
                                "$credential = New-Object System.Management.Automation.PSCredential($username,$password) ; \n",
                                "Add-Computer -DomainName ",
                                  { "Ref" : "DCDNSName" },
                                  " -Credential $credential -Force ; \n",
                                 "\n"
                              ]]}
                            }
                        },
                        "commands": {
                            "0-get-ec2cloud": {
                                "command": {
                                    "Fn::Join": [
                                        "",
                                        [
                                            "C:\\\"Program Files\"\\Amazon\\AWSCLI\\aws s3 cp s3://",
                                            {
                                                    "Ref": "PrivateS3BucketName"
                                            },
                                            "/Windows/AWS.EC2.Windows.CloudWatch.json c:\\cfn\\AWS.EC2.Windows.CloudWatch.json"
                                        ]
                                    ]
                                },
                                "ignoreErrors": {
                                    "Ref": "CmdIgnoreErrors"
                                },
                                "waitAfterCompletion": "5"
                            },
                            "1-install-roles": {
                                "command": {
                                    "Fn::Join": [
                                        "",
                                        [
                                            "if not \"None\" EQU \"",
                                            {
                                                "Ref": "Roles"
                                            },
                                            "\" (powershell.exe add-windowsfeature ",
                                            {
                                                "Ref": "Roles"
                                            },
                                            " -includeallsubfeature)"
                                        ]
                                    ]
                                },
                                "ignoreErrors": {
                                    "Ref": "CmdIgnoreErrors"
                                },
                                "waitAfterCompletion": "5"
                            },
                            "2-install-features": {
                                "command": {
                                    "Fn::Join": [
                                        "",
                                        [
                                            "If Not \"None\" EQU \"",
                                            {
                                                "Ref": "Features"
                                            },
                                            "\" (powershell.exe add-windowsfeature ",
                                            {
                                                "Ref": "Features"
                                            },
                                            " -includeallsubfeature )"
                                        ]
                                    ]
                                },
                                "ignoreErrors": {
                                    "Ref": "CmdIgnoreErrors"
                                },
                                "waitAfterCompletion": "5"
                            },
                            "3-cloudwatch": {
                                "command": "copy C:\\cfn\\AWS.EC2.Windows.CloudWatch.json \"%PROGRAMFILES%\"\\Amazon\\SSM\\Plugins\\awsCloudWatch\\AWS.EC2.Windows.CloudWatch.json",
                                "ignoreErrors": {
                                    "Ref": "CmdIgnoreErrors"
                                },
                                "waitAfterCompletion": "5"
                            },
                            "4-set-firewall-disabled": {
                                "command": "PowerShell.exe set-netfirewallprofile -all -DefaultInboundAction Allow -DefaultOutboundAction Allow",
                                "ignoreErrors": {
                                    "Ref": "CmdIgnoreErrors"
                                },
                                "waitAfterCompletion": "5"
                            },
                            "5-choco": {
                                "command": "PowerShell.exe -NoProfile -ExecutionPolicy Bypass -Command \"iex ((new-object net.webclient).DownloadString('https://chocolatey.org/install.ps1'))\" && SET PATH=%PATH%;%ALLUSERSPROFILE%\\chocolatey\\bin",
                                "ignoreErrors": {
                                    "Ref": "CmdIgnoreErrors"
                                },
                                "waitAfterCompletion": "5"
                            }
                        },
                        "services": {
                            "windows": {
                                "cfn-hup": {
                                    "enabled": "true",
                                    "ensureRunning": "true",
                                    "files": [
                                        "c:\\cfn\\cfn-hup.conf",
                                        "c:\\cfn\\hooks.d\\cfn-auto-reloader.conf"
                                    ]
                                }
                            }
                        }
                    },
                    "time": {
                        "commands": {
                            "1-stop-time": {
                                "command": "net stop w32time",
                                "ignoreErrors": "true",
                                "waitAfterCompletion": "2"
                            },
                            "2-set-timesource": {
                                "command": {
                                    "Fn::Join": [
                                        "",
                                        [
                                            "w32tm /config /manualpeerlist:\"",
                                            "0.amazon.pool.ntp.org ",
                                            "1.amazon.pool.ntp.org ",
                                            "2.amazon.pool.ntp.org ",
                                            "3.amazon.pool.ntp.org ",
                                            " ",
                                            "\" /syncfromflags:manual /reliable:yes"
                                        ]
                                    ]
                                },
                                "ignoreErrors": {
                                    "Ref": "CmdIgnoreErrors"
                                },
                                "waitAfterCompletion": "5"
                            },
                            "3-set-timezone": {
                                "command": "tzutil /s \"GMT Standard Time\"",
                                "ignoreErrors": {
                                    "Ref": "CmdIgnoreErrors"
                                },
                                "waitAfterCompletion": "5"
                            }
                        },
                        "services": {
                            "windows": {
                                "w32time": {
                                    "enabled": "true",
                                    "ensureRunning": "true",
                                    "commands": [
                                        "1-stop-time"
                                    ]
                                }
                            }
                        }
                    },
                    "rename": {
                        "commands": {
                            "1-rename-computer": {
                                "command": {
                                    "Fn::Join": [
                                        "",
                                        [
                                            "powershell.exe -ExecutionPolicy Unrestricted Rename-Computer -NewName \"",
                                            {
                                                "Ref": "MyWindowsName"
                                            },
                                            "\" -Restart \n"
                                        ]
                                    ]
                                },
                                "ignoreErrors": "true",
                                "waitAfterCompletion": "2"
                            }
                        }
                    },
                    "joindomain" : {
                      "commands" : {
                        "1-join-domain" : {
                          "command" : "powerShell.exe -ExecutionPolicy UnRestricted -File C:\\cfn\\scripts\\domain-join.ps1 \n",
                          "ignoreErrors" : "true",
                          "waitAfterCompletion" : "120"
                        },
                        "2-restart" : {
                          "command" : "powerShell.exe -ExecutionPolicy UnRestricted Restart-Computer -force \n",
                          "ignoreErrors" : "true",
                          "waitAfterCompletion" : "forever"
                        },
                        "3-restart-again" : {
                          "command" : "powerShell.exe -ExecutionPolicy UnRestricted Restart-Computer -force \n",
                          "ignoreErrors" : "true",
                          "waitAfterCompletion" : "forever"
                        }
                      }
                    },
                    "sql_install": {
                        "commands": {
                            "1-sql_install": {
                              "command": {
                                  "Fn::Join": [
                                      "",
                                      [
                                          "mkdir  C:\\\"Program Files (x86)\"\\\"Microsoft SQL Server\"\\DReplayClient\\ResultDir C:\\\"Program Files (x86)\"\\\"Microsoft SQL Server\"\\DReplayClient\\WorkingDir",
                                          "",
                                      ]
                                  ]
                              },
                              "ignoreErrors": {
                                  "Ref": "CmdIgnoreErrors"
                              },
                              "waitAfterCompletion": "2"
                            },
                            "2-sql_install": {
                                "command": {
                                    "Fn::Join": [
                                        "",
                                        [
                                            "C:\\\"Program Files\"\\Amazon\\AWSCLI\\aws s3 cp s3://",
                                            {
                                                "Ref": "PrivateS3BucketName"
                                            },
                                            "/Windows/MSSQL/",
                                            {
                                                "Ref": "MySqlIsoFileName"
                                            },
                                            " C:\\cfn\\sql2012.iso \n"
                                        ]
                                    ]
                                },
                                "ignoreErrors": {
                                    "Ref": "CmdIgnoreErrors"
                                },
                                "waitAfterCompletion": "2"
                            },
                            "3-sql_install": {
                                "command": "PowerShell.exe Mount-DiskImage -ImagePath \"C:\\cfn\\sql2012.iso\"",
                                "ignoreErrors": {
                                    "Ref": "CmdIgnoreErrors"
                                },
                                "waitAfterCompletion": "2"
                            },
                            "4-sql_install": {
                                "command": {
                                    "Fn::Join": [
                                        "",
                                        [
                                            "C:\\\"Program Files\"\\Amazon\\AWSCLI\\aws s3 cp s3://",
                                            {
                                                "Ref": "PrivateS3BucketName"
                                            },
                                            "/Windows/MSSQL/",
                                            {
                                                "Ref": "MySSMSFileName"
                                            },
                                            " C:\\cfn\\",
                                            {
                                                "Ref": "MySSMSFileName"
                                            }
                                        ]
                                    ]
                                },
                                "ignoreErrors": {
                                    "Ref": "CmdIgnoreErrors"
                                },
                                "waitAfterCompletion": "2"
                            },
                            "5-sql_install": {
                                "command": {
                                    "Fn::Join": [
                                        "",
                                        [
                                            "C:\\\"Program Files\"\\Amazon\\AWSCLI\\aws s3 cp s3://",
                                            {
                                                "Ref": "PrivateS3BucketName"
                                            },
                                            "/Windows/MSSQL/",
                                            {
                                                "Ref": "MySqlConfFileName"
                                            },
                                            "  C:\\cfn\\",
                                            {
                                                "Ref": "MySqlConfFileName"
                                            }
                                        ]
                                    ]
                                },
                                "ignoreErrors": {
                                    "Ref": "CmdIgnoreErrors"
                                },
                                "waitAfterCompletion": "2"
                            },
                            "6-sql_install": {
                                "command": {
                                    "Fn::Join": [
                                        "",
                                        [
                                          {
                                              "Ref": "MySqlIsoDriveLetter"
                                          },
                                            ":\\Setup.exe /Q /ConfigurationFile=C:\\cfn\\",
                                            {
                                                "Ref": "MySqlConfFileName"
                                            },
                                            " /IAcceptSQLServerLicenseTerms"
                                        ]
                                    ]
                                },
                                "ignoreErrors": {
                                    "Ref": "CmdIgnoreErrors"
                                },
                                "waitAfterCompletion": "2"
                            },
                            "7-sql_install": {
                                "command": {
                                    "Fn::Join": [
                                        "",
                                        [
                                            "C:\\cfn\\",
                                            {
                                                "Ref": "MySSMSFileName"
                                            },
                                            " /install /quiet /norestart"
                                        ]
                                    ]
                                },
                                "ignoreErrors": {
                                    "Ref": "CmdIgnoreErrors"
                                },
                                "waitAfterCompletion": "2"
                            },
                        }
                    },
                    "finalise": {
                        "commands": {
                            "1-signal-success": {
                                "command": {
                                    "Fn::Join": [
                                        "",
                                        [
                                            "cfn-signal.exe -e %ERRORLEVEL% \"",
                                            {
                                                "Fn::Base64": {
                                                    "Ref": "AServerWaitHandle"
                                                }
                                            },
                                            "\""
                                        ]
                                    ]
                                }
                            }
                        }
                    },
                    "update_config": {
                        "commands": {
                            "1-dummy-step": {
                                "command": "echo \"Post rollout config steps should be put here to be run by cfn_hup\" >c:\\cfn\\scripts\\dummy.txt",
                                "env": {
                                    "MyEnvVars": "No special"
                                },
                                "ignoreErrors": {
                                    "Ref": "CmdIgnoreErrors"
                                }
                            }
                        }
                    }
                }
            },
            "Properties": {
                "DisableApiTermination": "false",
                "InstanceType": {
                    "Ref": "InstanceType"
                },
                "ImageId": {
                    "Ref": "MyAMI"
                },
                "KeyName": {
                    "Ref": "KeyPairName"
                },
                "Tags": [
                    {
                        "Key": "Name",
                        "Value": {
                            "Fn::Join": [
                                "-",
                                [
                                    {
                                        "Ref": "envPrefix"
                                    },
                                    {
                                        "Ref": "MyWindowsName"
                                    }
                                ]
                            ]
                        }
                    },
                    {
                        "Key": "CODEDEPLOY-ROLE",
                        "Value": {
                            "Fn::Join": [
                                "-",
                                [
                                    {
                                        "Ref": "envPrefix"
                                    },
                                    {
                                        "Ref": "MyTagName"
                                    }
                                ]
                            ]
                        }
                    }
                ],
                "IamInstanceProfile": {
                    "Ref": "MyInstanceProfile"
                },
                "SubnetId": {
                    "Ref": "MySubnetId"
                },
                "SecurityGroupIds": [
                    {
                        "Ref": "MySg"
                    },
                    {
                        "Ref": "ManageMeSg"
                    },
                    {
                        "Ref": "DomainMembersSg"
                    }
                ],
                "PrivateIpAddress": {
                    "Fn::If": [
                        "RequestedPrivateIP",
                        {
                            "Ref": "MyPrivateIP"
                        },
                        {
                            "Ref": "AWS::NoValue"
                        }
                    ]
                },
                "BlockDeviceMappings": {
                    "Fn::If" : [ "IsSQLServer",
                      [
                        {
                          "DeviceName": "/dev/sda1",
                          "Ebs": {
                              "VolumeSize": {"Ref": "MyVolCSize"},
                              "VolumeType": {"Ref": "MyVolCType"},
                              "DeleteOnTermination": "true"
                            }
                        },
                        {
                        "DeviceName": "/dev/xvde",
                        "Ebs" : {
                            "VolumeSize" : { "Ref" : "MyVolESize" },
                            "VolumeType" : {"Ref" : "MyVolEType"},
                            "DeleteOnTermination" : "true",
                            "Encrypted" : {"Ref" : "MyVolEEncrypt"}
                            }
                        },
                        {
                        "DeviceName": "/dev/xvdf",
                        "Ebs" : {
                            "VolumeSize" : { "Ref" : "MyVolFSize" },
                            "VolumeType" : {"Ref" : "MyVolFType"},
                            "DeleteOnTermination" : "true",
                            "Encrypted" : {"Ref" : "MyVolFEncrypt"}
                            }
                        },
                        {
                        "DeviceName": "/dev/xvdg",
                        "Ebs" : {
                            "VolumeSize" : { "Ref" : "MyVolGSize" },
                            "VolumeType" : {"Ref" : "MyVolGType"},
                            "DeleteOnTermination" : "true",
                            "Encrypted" : {"Ref" : "MyVolGEncrypt"}
                          }
                        },
                        {
                        "DeviceName": "/dev/xvdh",
                        "Ebs" : {
                            "VolumeSize" : { "Ref" : "MyVolHSize" },
                            "VolumeType" : {"Ref" : "MyVolHType"},
                            "DeleteOnTermination" : "true",
                            "Encrypted" : {"Ref" : "MyVolHEncrypt"}
                          }
                        }
                      ],
                      [
                        {
                          "DeviceName": "/dev/sda1",
                          "Ebs": {
                              "VolumeSize": {"Ref": "MyVolCSize"},
                              "VolumeType": {"Ref": "MyVolCType"},
                              "DeleteOnTermination": "true"
                            }
                          }
                        ]
                      ]
                },

                "UserData": {
                    "Fn::Base64": {
                        "Fn::Join": [
                            "",
                            [
                                "<persist>false</persist>\n",
                                "<powershell>\n",
                                "</powershell> \n",
                                "<script>\n",
                                "cfn-init.exe -v -c config -s ",
                                {
                                    "Ref": "AWS::StackId"
                                },
                                " -r WindowsServer",
                                " --region ",
                                {
                                    "Ref": "AWS::Region"
                                },
                                " \n",
                                "cfn-signal.exe --success true --region ",
                                {
                                    "Ref": "AWS::Region"
                                },
                                " ",
                                {
                                    "Fn::Base64": {
                                        "Ref": "AServerWaitHandle"
                                    }
                                },
                                " \n",
                                "</script>\n",
                                "<persist>False</persist> \n"
                            ]
                        ]
                    }
                }
            }
        },
        "RecoveryAlarm": {
            "Type": "AWS::CloudWatch::Alarm",
            "Properties": {
                "AlarmDescription": "Trigger a recovery when instance status check fails.",
                "Namespace": "AWS/EC2",
                "MetricName": "StatusCheckFailed_System",
                "Statistic": "Minimum",
                "Period": "300",
                "EvaluationPeriods": "2",
                "ComparisonOperator": "GreaterThanThreshold",
                "Threshold": "0",
                "AlarmActions": [
                    {
                        "Fn::Join": [
                            "",
                            [
                                "arn:aws:automate:",
                                {
                                    "Ref": "AWS::Region"
                                },
                                ":ec2:recover"
                            ]
                        ]
                    }
                ],
                "Dimensions": [
                    {
                        "Name": "InstanceId",
                        "Value": {
                            "Ref": "WindowsServer"
                        }
                    }
                ]
            }
        },
        "RebootAlarm": {
            "Type": "AWS::CloudWatch::Alarm",
            "Condition" : "RequestedPrivateIP",
            "Properties": {
                "AlarmDescription": "Trigger a reboot when instance status check fails.",
                "Namespace": "AWS/EC2",
                "MetricName": "StatusCheckFailed_Instance",
                "Statistic": "Minimum",
                "Period": "300",
                "EvaluationPeriods": "2",
                "ComparisonOperator": "GreaterThanThreshold",
                "Threshold": "0",
                "AlarmActions": [
                    {
                        "Fn::Join": [
                            "",
                            [
                                "arn:aws:swf:",
                                {
                                    "Ref": "AWS::Region"
                                },
                                ":",
                                {
                                    "Ref": "CustomerAccount"
                                },
                                ":action/actions/AWS_EC2.",
                                {
                                    "Ref": "WindowsServer"
                                },
                                ".Reboot/1.0"
                            ]
                        ]
                    }
                ],
                "Dimensions": [
                    {
                        "Name": "InstanceId",
                        "Value": {
                            "Ref": "WindowsServer"
                        }
                    }
                ]
            }
        },
        "AServerWaitHandle": {
            "Type": "AWS::CloudFormation::WaitConditionHandle"
        },
        "AServerWaitCondition": {
            "Type": "AWS::CloudFormation::WaitCondition",
            "DependsOn": "WindowsServer",
            "Properties": {
                "Handle": {
                    "Ref": "AServerWaitHandle"
                },
                "Timeout": "1800"
            }
        }
    },
    "Outputs": {
        "InstanceId": {
            "Description": "InstanceId of the newly created EC2 instance",
            "Value": {
                "Ref": "WindowsServer"
            }
        },
        "PrivateIP": {
            "Description": "Private IP address of the newly created EC2 instance",
            "Value": {
                "Fn::GetAtt": [
                    "WindowsServer",
                    "PrivateIp"
                ]
            }
        },
        "FeaturesEnabled": {
            "Value": {
                "Ref": "Features"
            },
            "Description": "Features enabled on this instance."
        }
    }
}