{
  "AWSTemplateFormatVersion": "2010-09-09",
  "Description": "Create AWS CloudWatch log groups",
  "Parameters": {
    "InstanceLogGroupName" : {
      "Type" : "String",
      "Default" : "abbeycapital-instance-logs"
    }
  },
  "Resources": {
    "InstanceLogGroup": {
      "Type": "AWS::Logs::LogGroup",
      "Properties": {
        "LogGroupName": { "Ref" : "InstanceLogGroupName" },
        "RetentionInDays": "90"
      }
    }
  },
  "Outputs": {
    "OUTInstanceLogGroup" : {
      "Description": "InstanceLogGroup",
      "Value": {
        "Ref": "InstanceLogGroup"
      },
      "Export": {
        "Name": {
          "Fn::Sub": "${AWS::StackName}-InstanceLogGroup"
        }
      }
    }
  }
}
