{
    "version": "0",
    "id": "90d92aec-ff03-c691-014f-5c0dfbd6a5c6",
    "detail-type": "Scheduled Event",
    "source": "aws.events",
    "account": "985715988019",
    "time": "2019-02-22T09:00:00Z",
    "region": "eu-west-1",
    "resources": [
        "arn:aws:events:eu-west-1:985715988019:rule/Infrastructure-StorageGat-TakeSnapshotFunctionChec-C9OQOXO9SBZG"
    ],
    "detail": {}
}